module gitlab.com/PatrickVienne/go-grpc-mongo

go 1.18

require (
	github.com/spf13/cobra v1.5.0
	go.mongodb.org/mongo-driver v1.9.1
	google.golang.org/grpc v1.47.0
	google.golang.org/protobuf v1.28.0
	gopkg.in/mgo.v2 v2.0.0-20190816093944-a6b53ec6cb22
)

require (
	github.com/go-stack/stack v1.8.0 // indirect
	github.com/golang/protobuf v1.5.2 // indirect
	github.com/golang/snappy v0.0.1 // indirect
	github.com/inconshreveable/mousetrap v1.0.0 // indirect
	github.com/klauspost/compress v1.13.6 // indirect
	github.com/pkg/errors v0.9.1 // indirect
	github.com/spf13/pflag v1.0.5 // indirect
	github.com/xdg-go/pbkdf2 v1.0.0 // indirect
	github.com/xdg-go/scram v1.0.2 // indirect
	github.com/xdg-go/stringprep v1.0.2 // indirect
	github.com/youmark/pkcs8 v0.0.0-20181117223130-1be2e3e5546d // indirect
	golang.org/x/crypto v0.0.0-20201216223049-8b5274cf687f // indirect
	golang.org/x/net v0.0.0-20201021035429-f5854403a974 // indirect
	golang.org/x/sync v0.0.0-20190911185100-cd5d95a43a6e // indirect
	golang.org/x/sys v0.0.0-20210119212857-b64e53b001e4 // indirect
	golang.org/x/text v0.3.5 // indirect
	google.golang.org/genproto v0.0.0-20200526211855-cb27e3aa2013 // indirect
)
